%YAML 1.1
%TAG !u! tag:unity3d.com,2011:
--- !u!1001 &7635912923696153428
PrefabInstance:
  m_ObjectHideFlags: 0
  serializedVersion: 2
  m_Modification:
    m_TransformParent: {fileID: 0}
    m_Modifications:
    - target: {fileID: 8822373000730885859, guid: 09597ec352b5a70428734125b800a9ed,
        type: 3}
      propertyPath: m_Name
      value: Cell_Wall
      objectReference: {fileID: 0}
    - target: {fileID: 8982524989140950545, guid: 09597ec352b5a70428734125b800a9ed,
        type: 3}
      propertyPath: m_LocalPosition.x
      value: 0
      objectReference: {fileID: 0}
    - target: {fileID: 8982524989140950545, guid: 09597ec352b5a70428734125b800a9ed,
        type: 3}
      propertyPath: m_LocalPosition.y
      value: 0
      objectReference: {fileID: 0}
    - target: {fileID: 8982524989140950545, guid: 09597ec352b5a70428734125b800a9ed,
        type: 3}
      propertyPath: m_LocalPosition.z
      value: 0
      objectReference: {fileID: 0}
    - target: {fileID: 8982524989140950545, guid: 09597ec352b5a70428734125b800a9ed,
        type: 3}
      propertyPath: m_LocalRotation.x
      value: 0
      objectReference: {fileID: 0}
    - target: {fileID: 8982524989140950545, guid: 09597ec352b5a70428734125b800a9ed,
        type: 3}
      propertyPath: m_LocalRotation.y
      value: 0
      objectReference: {fileID: 0}
    - target: {fileID: 8982524989140950545, guid: 09597ec352b5a70428734125b800a9ed,
        type: 3}
      propertyPath: m_LocalRotation.z
      value: 0
      objectReference: {fileID: 0}
    - target: {fileID: 8982524989140950545, guid: 09597ec352b5a70428734125b800a9ed,
        type: 3}
      propertyPath: m_LocalRotation.w
      value: 1
      objectReference: {fileID: 0}
    - target: {fileID: 8982524989140950545, guid: 09597ec352b5a70428734125b800a9ed,
        type: 3}
      propertyPath: m_RootOrder
      value: 0
      objectReference: {fileID: 0}
    - target: {fileID: 8982524989140950545, guid: 09597ec352b5a70428734125b800a9ed,
        type: 3}
      propertyPath: m_LocalEulerAnglesHint.x
      value: 0
      objectReference: {fileID: 0}
    - target: {fileID: 8982524989140950545, guid: 09597ec352b5a70428734125b800a9ed,
        type: 3}
      propertyPath: m_LocalEulerAnglesHint.y
      value: 0
      objectReference: {fileID: 0}
    - target: {fileID: 8982524989140950545, guid: 09597ec352b5a70428734125b800a9ed,
        type: 3}
      propertyPath: m_LocalEulerAnglesHint.z
      value: 0
      objectReference: {fileID: 0}
    - target: {fileID: 5235322404113933998, guid: 09597ec352b5a70428734125b800a9ed,
        type: 3}
      propertyPath: m_Sprite
      value: 
      objectReference: {fileID: 21300000, guid: 99b464d55a0fc0c4a970b21b04790a3c,
        type: 3}
    - target: {fileID: 5235322404113933998, guid: 09597ec352b5a70428734125b800a9ed,
        type: 3}
      propertyPath: m_WasSpriteAssigned
      value: 1
      objectReference: {fileID: 0}
    - target: {fileID: 5235322404113933998, guid: 09597ec352b5a70428734125b800a9ed,
        type: 3}
      propertyPath: m_SortingOrder
      value: -1
      objectReference: {fileID: 0}
    - target: {fileID: -3592430424111502266, guid: 09597ec352b5a70428734125b800a9ed,
        type: 3}
      propertyPath: m_Enabled
      value: 0
      objectReference: {fileID: 0}
    - target: {fileID: 6616662748023934601, guid: 09597ec352b5a70428734125b800a9ed,
        type: 3}
      propertyPath: _isGape
      value: 1
      objectReference: {fileID: 0}
    - target: {fileID: 6616662748023934601, guid: 09597ec352b5a70428734125b800a9ed,
        type: 3}
      propertyPath: _isGap
      value: 1
      objectReference: {fileID: 0}
    m_RemovedComponents: []
  m_SourcePrefab: {fileID: 100100000, guid: 09597ec352b5a70428734125b800a9ed, type: 3}
